<svg xmlns="http://www.w3.org/2000/svg" width="24" height="24" viewBox="0 0 24 24">
    <g fill="none" fill-rule="evenodd">
        <g stroke="#66BB6A" stroke-linecap="round" stroke-linejoin="round" stroke-width="2">
            <path d="M20.19 11.152v.753a8.095 8.095 0 1 1-4.8-7.4"/>
            <path d="M21 4.619l-8.905 8.905-2.428-2.429"/>
        </g>
        <path d="M0 0h24v24H0z"/>
    </g>
</svg>
