<svg xmlns="http://www.w3.org/2000/svg" width="19" height="17" viewBox="0 0 19 17">
    <g fill="none" fill-rule="evenodd">
        <path d="M22 21V-3H-2v24z"/>
        <g stroke="#2CBCB3" stroke-linecap="round" stroke-linejoin="round" stroke-width="2">
            <path d="M1 14c0 1.105.761 2 1.7 2h13.6c.939 0 1.7-.895 1.7-2M6.5 4L10 1l3.5 3M10 1v10"/>
        </g>
    </g>
</svg>
